[
  {
    "symbol": "$",
    "name": "East Caribbean Dollar",
    "id": "XCD"
  },
  {
    "symbol": "\u20ac",
    "name": "Euro",
    "id": "EUR"
  },
  {
    "symbol": "$",
    "name": "Barbadian Dollar",
    "id": "BBD"
  },
  {
    "symbol": "$",
    "name": "Brunei Dollar",
    "id": "BND"
  },
  {
    "symbol": "$",
    "name": "Cuban Peso",
    "id": "CUP"
  },
  {
    "symbol": "$",
    "name": "United States Dollar",
    "id": "USD"
  },
  {
    "symbol": "\u00a3",
    "name": "Falkland Islands Pound",
    "id": "FKP"
  },
  {
    "symbol": "\u00a3",
    "name": "Gibraltar Pound",
    "id": "GIP"
  },
  {
    "symbol": "\ufdfc",
    "name": "Iranian Rial",
    "id": "IRR"
  },
  {
    "symbol": "J$",
    "name": "Jamaican Dollar",
    "id": "JMD"
  },
  {
    "symbol": "$",
    "name": "Australian Dollar",
    "id": "AUD"
  },
  {
    "symbol": "\u20ad",
    "name": "Lao Kip",
    "id": "LAK"
  },
  {
    "symbol": "\u0434\u0435\u043d",
    "name": "Macedonian Denar",
    "id": "MKD"
  },
  {
    "symbol": "$",
    "name": "New Zealand Dollar",
    "id": "NZD"
  },
  {
    "symbol": "\ufdfc",
    "name": "Omani Rial",
    "id": "OMR"
  },
  {
    "symbol": "\u0414\u0438\u043d.",
    "name": "Serbian Dinar",
    "id": "RSD"
  },
  {
    "symbol": "kr",
    "name": "Swedish Krona",
    "id": "SEK"
  },
  {
    "symbol": "TSh",
    "name": "Tanzanian Shilling",
    "id": "TZS"
  },
  {
    "symbol": "$",
    "name": "Bahamian Dollar",
    "id": "BSD"
  },
  {
    "symbol": "KM",
    "name": "Bosnia And Herzegovina Konvertibilna Marka",
    "id": "BAM"
  },
  {
    "symbol": "\u00a5",
    "name": "Chinese Yuan",
    "id": "CNY"
  },
  {
    "symbol": "\u20a1",
    "name": "Costa Rican Colon",
    "id": "CRC"
  },
  {
    "symbol": "K\u010d",
    "name": "Czech Koruna",
    "id": "CZK"
  },
  {
    "symbol": "\u20b9",
    "name": "Indian Rupee",
    "id": "INR"
  },
  {
    "symbol": "\u20a9",
    "name": "South Korean Won",
    "id": "KRW"
  },
  {
    "symbol": "\u00a3",
    "name": "Lebanese Lira",
    "id": "LBP"
  },
  {
    "symbol": "\u0192",
    "name": "Netherlands Antillean Gulden",
    "id": "ANG"
  },
  {
    "symbol": "S\/.",
    "name": "Peruvian Nuevo Sol",
    "id": "PEN"
  },
  {
    "symbol": "\ufdfc",
    "name": "Qatari Riyal",
    "id": "QAR"
  },
  {
    "symbol": "S",
    "name": "Somali Shilling",
    "id": "SOS"
  },
  {
    "symbol": "\u00a3",
    "name": "Syrian Pound",
    "id": "SYP"
  },
  {
    "symbol": "\u0192",
    "name": "Aruban Florin",
    "id": "AWG"
  },
  {
    "symbol": "BZ$",
    "name": "Belize Dollar",
    "id": "BZD"
  },
  {
    "symbol": "P",
    "name": "Botswana Pula",
    "id": "BWP"
  },
  {
    "symbol": "$",
    "name": "Cayman Islands Dollar",
    "id": "KYD"
  },
  {
    "symbol": "$",
    "name": "Colombian Peso",
    "id": "COP"
  },
  {
    "symbol": "kr",
    "name": "Danish Krone",
    "id": "DKK"
  },
  {
    "symbol": "Q",
    "name": "Guatemalan Quetzal",
    "id": "GTQ"
  },
  {
    "symbol": "L",
    "name": "Honduran Lempira",
    "id": "HNL"
  },
  {
    "symbol": "Rp",
    "name": "Indonesian Rupiah",
    "id": "IDR"
  },
  {
    "symbol": "\u20aa",
    "name": "Israeli New Sheqel",
    "id": "ILS"
  },
  {
    "symbol": "\u043b\u0432",
    "name": "Kazakhstani Tenge",
    "id": "KZT"
  },
  {
    "symbol": "RM",
    "name": "Malaysian Ringgit",
    "id": "MYR"
  },
  {
    "symbol": "\u20a8",
    "name": "Mauritian Rupee",
    "id": "MUR"
  },
  {
    "symbol": "\u20ae",
    "name": "Mongolian Tugrik",
    "id": "MNT"
  },
  {
    "symbol": "\u20a6",
    "name": "Nigerian Naira",
    "id": "NGN"
  },
  {
    "symbol": "B\/.",
    "name": "Panamanian Balboa",
    "id": "PAB"
  },
  {
    "symbol": "\u20b1",
    "name": "Philippine Peso",
    "id": "PHP"
  },
  {
    "symbol": "\ufdfc",
    "name": "Saudi Riyal",
    "id": "SAR"
  },
  {
    "symbol": "$",
    "name": "Singapore Dollar",
    "id": "SGD"
  },
  {
    "symbol": "R",
    "name": "South African Rand",
    "id": "ZAR"
  },
  {
    "symbol": "$",
    "name": "Argentine Peso",
    "id": "ARS"
  },
  {
    "symbol": "\u043c\u0430\u043d",
    "name": "Azerbaijani Manat",
    "id": "AZN"
  },
  {
    "symbol": "p.",
    "name": "Belarusian Ruble",
    "id": "BYR"
  },
  {
    "symbol": "$",
    "name": "Canadian Dollar",
    "id": "CAD"
  },
  {
    "symbol": "$",
    "name": "Chilean Peso",
    "id": "CLP"
  },
  {
    "symbol": "RD$",
    "name": "Dominican Peso",
    "id": "DOP"
  },
  {
    "symbol": "$",
    "name": "Fijian Dollar",
    "id": "FJD"
  },
  {
    "symbol": "$",
    "name": "Guyanese Dollar",
    "id": "GYD"
  },
  {
    "symbol": "kr",
    "name": "Icelandic Kr\u00f3na",
    "id": "ISK"
  },
  {
    "symbol": "\u00a5",
    "name": "Japanese Yen",
    "id": "JPY"
  },
  {
    "symbol": "\u20a9",
    "name": "North Korean Won",
    "id": "KPW"
  },
  {
    "symbol": "Ls",
    "name": "Latvian Lats",
    "id": "LVL"
  },
  {
    "symbol": "Fr.",
    "name": "Swiss Franc",
    "id": "CHF"
  },
  {
    "symbol": "\u20a8",
    "name": "Nepalese Rupee",
    "id": "NPR"
  },
  {
    "symbol": "C$",
    "name": "Nicaraguan Cordoba",
    "id": "NIO"
  },
  {
    "symbol": "\u20a8",
    "name": "Pakistani Rupee",
    "id": "PKR"
  },
  {
    "symbol": "Gs",
    "name": "Paraguayan Guarani",
    "id": "PYG"
  },
  {
    "symbol": "\u00a3",
    "name": "Saint Helena Pound",
    "id": "SHP"
  },
  {
    "symbol": "\u20a8",
    "name": "Seychellois Rupee",
    "id": "SCR"
  },
  {
    "symbol": "$",
    "name": "Solomon Islands Dollar",
    "id": "SBD"
  },
  {
    "symbol": "\u20a8",
    "name": "Sri Lankan Rupee",
    "id": "LKR"
  },
  {
    "symbol": "\u0e3f",
    "name": "Thai Baht",
    "id": "THB"
  },
  {
    "symbol": "\ufdfc",
    "name": "Yemeni Rial",
    "id": "YER"
  },
  {
    "symbol": "\u060b",
    "name": "Afghan Afghani",
    "id": "AFN"
  },
  {
    "symbol": "R$",
    "name": "Brazilian Real",
    "id": "BRL"
  },
  {
    "symbol": "\u17db",
    "name": "Cambodian Riel",
    "id": "KHR"
  },
  {
    "symbol": "kn",
    "name": "Croatian Kuna",
    "id": "HRK"
  },
  {
    "symbol": "\u00a3",
    "name": "Egyptian Pound",
    "id": "EGP"
  },
  {
    "symbol": "KSh",
    "name": "Kenyan Shilling",
    "id": "KES"
  },
  {
    "symbol": "\u043b\u0432",
    "name": "Kyrgyzstani Som",
    "id": "KGS"
  },
  {
    "symbol": "$",
    "name": "Liberian Dollar",
    "id": "LRD"
  },
  {
    "symbol": "$",
    "name": "Mexican Peso",
    "id": "MXN"
  },
  {
    "symbol": "$",
    "name": "Namibian Dollar",
    "id": "NAD"
  },
  {
    "symbol": "kr",
    "name": "Norwegian Krone",
    "id": "NOK"
  },
  {
    "symbol": "z\u0142",
    "name": "Polish Zloty",
    "id": "PLN"
  },
  {
    "symbol": "\u0440\u0443\u0431",
    "name": "Russian Ruble",
    "id": "RUB"
  },
  {
    "symbol": "TT$",
    "name": "Trinidad and Tobago Dollar",
    "id": "TTD"
  },
  {
    "symbol": "USh",
    "name": "Ugandan Shilling",
    "id": "UGX"
  },
  {
    "symbol": "$U",
    "name": "Uruguayan Peso",
    "id": "UYU"
  },
  {
    "symbol": "\u20ab",
    "name": "Vietnamese Dong",
    "id": "VND"
  },
  {
    "symbol": "\u20b4",
    "name": "Ukrainian Hryvnia",
    "id": "UAH"
  },
  {
    "symbol": "\u043b\u0432",
    "name": "Uzbekistani Som",
    "id": "UZS"
  },
  {
    "symbol": "\u00a3",
    "name": "British Pound",
    "id": "GBP"
  },
  {
    "symbol": "BTC",
    "name": "Bitcoin",
    "id": "BTC"
  },
  {
    "symbol": "ETH",
    "name": "Ethereum",
    "id": "ETH"
  },
  {
    "symbol": "USDT",
    "name": "USD Tether",
    "id": "USDT"
  },
  {
    "symbol": "DOGE",
    "name": "Doge Coin",
    "id": "DOGE"
  },
  {
    "symbol": "BNB",
    "name": "Binance Coin",
    "id": "BNB"
  }
]
